x,y,class
0,5,+
0,0,-
1,6,+
1,1,-
2,7,+
2,2,-
3,8,+
3,3,-
4,9,+
4,4,-
5,10,+
5,5,-
6,11,+
6,6,-
7,12,+
7,7,-
8,13,+
8,8,-
9,14,+
9,9,-
10,15,+
10,10,-
11,16,+
11,11,-
12,17,+
12,12,-
13,18,+
13,13,-
14,19,+
14,14,-
15,20,+
15,15,-
16,21,+
16,16,-
17,22,+
17,17,-
18,23,+
18,18,-
19,24,+
19,19,-
20,25,+
20,20,-
21,26,+
21,21,-
22,27,+
22,22,-
23,28,+
23,23,-
24,29,+
24,24,-
25,30,+
25,25,-
26,31,+
26,26,-
27,32,+
27,27,-
28,33,+
28,28,-
29,34,+
29,29,-
30,35,+
30,30,-
31,36,+
31,31,-
32,37,+
32,32,-
33,38,+
33,33,-
34,39,+
34,34,-
35,40,+
35,35,-
36,41,+
36,36,-
37,42,+
37,37,-
38,43,+
38,38,-
39,44,+
39,39,-
40,45,+
40,40,-
41,46,+
41,41,-
42,47,+
42,42,-
43,48,+
43,43,-
44,49,+
44,44,-
45,50,+
45,45,-
46,51,+
46,46,-
47,52,+
47,47,-
48,53,+
48,48,-
49,54,+
49,49,-
50,55,+
50,50,-
51,56,+
51,51,-
52,57,+
52,52,-
53,58,+
53,53,-
54,59,+
54,54,-
55,60,+
55,55,-
56,61,+
56,56,-
57,62,+
57,57,-
58,63,+
58,58,-
59,64,+
59,59,-
60,65,+
60,60,-
61,66,+
61,61,-
62,67,+
62,62,-
63,68,+
63,63,-
64,69,+
64,64,-
65,70,+
65,65,-
66,71,+
66,66,-
67,72,+
67,67,-
68,73,+
68,68,-
69,74,+
69,69,-
70,75,+
70,70,-
71,76,+
71,71,-
72,77,+
72,72,-
73,78,+
73,73,-
74,79,+
74,74,-
75,80,+
75,75,-
76,81,+
76,76,-
77,82,+
77,77,-
78,83,+
78,78,-
79,84,+
79,79,-
80,85,+
80,80,-
81,86,+
81,81,-
82,87,+
82,82,-
83,88,+
83,83,-
84,89,+
84,84,-
85,90,+
85,85,-
86,91,+
86,86,-
87,92,+
87,87,-
88,93,+
88,88,-
89,94,+
89,89,-
90,95,+
90,90,-
91,96,+
91,91,-
92,97,+
92,92,-
93,98,+
93,93,-
94,99,+
94,94,-
95,100,+
95,95,-
96,101,+
96,96,-
97,102,+
97,97,-
98,103,+
98,98,-
99,104,+
99,99,-
100,105,+
100,100,-
101,106,+
101,101,-
102,107,+
102,102,-
103,108,+
103,103,-
104,109,+
104,104,-
105,110,+
105,105,-
106,111,+
106,106,-
107,112,+
107,107,-
108,113,+
108,108,-
109,114,+
109,109,-
110,115,+
110,110,-
111,116,+
111,111,-
112,117,+
112,112,-
113,118,+
113,113,-
114,119,+
114,114,-
115,120,+
115,115,-
116,121,+
116,116,-
117,122,+
117,117,-
118,123,+
118,118,-
119,124,+
119,119,-
120,125,+
120,120,-
121,126,+
121,121,-
122,127,+
122,122,-
123,128,+
123,123,-
124,129,+
124,124,-
125,130,+
125,125,-
126,131,+
126,126,-
127,132,+
127,127,-
128,133,+
128,128,-
129,134,+
129,129,-
130,135,+
130,130,-
131,136,+
131,131,-
132,137,+
132,132,-
133,138,+
133,133,-
134,139,+
134,134,-
135,140,+
135,135,-
136,141,+
136,136,-
137,142,+
137,137,-
138,143,+
138,138,-
139,144,+
139,139,-
140,145,+
140,140,-
141,146,+
141,141,-
142,147,+
142,142,-
143,148,+
143,143,-
144,149,+
144,144,-
145,150,+
145,145,-
146,151,+
146,146,-
147,152,+
147,147,-
148,153,+
148,148,-
149,154,+
149,149,-
150,155,+
150,150,-
151,156,+
151,151,-
152,157,+
152,152,-
153,158,+
153,153,-
154,159,+
154,154,-
155,160,+
155,155,-
156,161,+
156,156,-
157,162,+
157,157,-
158,163,+
158,158,-
159,164,+
159,159,-
160,165,+
160,160,-
161,166,+
161,161,-
162,167,+
162,162,-
163,168,+
163,163,-
164,169,+
164,164,-
165,170,+
165,165,-
166,171,+
166,166,-
167,172,+
167,167,-
168,173,+
168,168,-
169,174,+
169,169,-
170,175,+
170,170,-
171,176,+
171,171,-
172,177,+
172,172,-
173,178,+
173,173,-
174,179,+
174,174,-
175,180,+
175,175,-
176,181,+
176,176,-
177,182,+
177,177,-
178,183,+
178,178,-
179,184,+
179,179,-
180,185,+
180,180,-
181,186,+
181,181,-
182,187,+
182,182,-
183,188,+
183,183,-
184,189,+
184,184,-
185,190,+
185,185,-
186,191,+
186,186,-
187,192,+
187,187,-
188,193,+
188,188,-
189,194,+
189,189,-
190,195,+
190,190,-
191,196,+
191,191,-
192,197,+
192,192,-
193,198,+
193,193,-
194,199,+
194,194,-
195,200,+
195,195,-
196,201,+
196,196,-
197,202,+
197,197,-
198,203,+
198,198,-
199,204,+
199,199,-
200,205,+
200,200,-
201,206,+
201,201,-
202,207,+
202,202,-
203,208,+
203,203,-
204,209,+
204,204,-
205,210,+
205,205,-
206,211,+
206,206,-
207,212,+
207,207,-
208,213,+
208,208,-
209,214,+
209,209,-
210,215,+
210,210,-
211,216,+
211,211,-
212,217,+
212,212,-
213,218,+
213,213,-
214,219,+
214,214,-
215,220,+
215,215,-
216,221,+
216,216,-
217,222,+
217,217,-
218,223,+
218,218,-
219,224,+
219,219,-
220,225,+
220,220,-
221,226,+
221,221,-
222,227,+
222,222,-
223,228,+
223,223,-
224,229,+
224,224,-
225,230,+
225,225,-
226,231,+
226,226,-
227,232,+
227,227,-
228,233,+
228,228,-
229,234,+
229,229,-
230,235,+
230,230,-
231,236,+
231,231,-
232,237,+
232,232,-
233,238,+
233,233,-
234,239,+
234,234,-
235,240,+
235,235,-
236,241,+
236,236,-
237,242,+
237,237,-
238,243,+
238,238,-
239,244,+
239,239,-
240,245,+
240,240,-
241,246,+
241,241,-
242,247,+
242,242,-
243,248,+
243,243,-
244,249,+
244,244,-
245,250,+
245,245,-
246,251,+
246,246,-
247,252,+
247,247,-
248,253,+
248,248,-
249,254,+
249,249,-
250,255,+
250,250,-
251,256,+
251,251,-
252,257,+
252,252,-
253,258,+
253,253,-
254,259,+
254,254,-
255,260,+
255,255,-
256,261,+
256,256,-
257,262,+
257,257,-
258,263,+
258,258,-
259,264,+
259,259,-
260,265,+
260,260,-
261,266,+
261,261,-
262,267,+
262,262,-
263,268,+
263,263,-
264,269,+
264,264,-
265,270,+
265,265,-
266,271,+
266,266,-
267,272,+
267,267,-
268,273,+
268,268,-
269,274,+
269,269,-
270,275,+
270,270,-
271,276,+
271,271,-
272,277,+
272,272,-
273,278,+
273,273,-
274,279,+
274,274,-
275,280,+
275,275,-
276,281,+
276,276,-
277,282,+
277,277,-
278,283,+
278,278,-
279,284,+
279,279,-
280,285,+
280,280,-
281,286,+
281,281,-
282,287,+
282,282,-
283,288,+
283,283,-
284,289,+
284,284,-
285,290,+
285,285,-
286,291,+
286,286,-
287,292,+
287,287,-
288,293,+
288,288,-
289,294,+
289,289,-
290,295,+
290,290,-
291,296,+
291,291,-
292,297,+
292,292,-
293,298,+
293,293,-
294,299,+
294,294,-
295,300,+
295,295,-
296,301,+
296,296,-
297,302,+
297,297,-
298,303,+
298,298,-
299,304,+
299,299,-
300,305,+
300,300,-
301,306,+
301,301,-
302,307,+
302,302,-
303,308,+
303,303,-
304,309,+
304,304,-
305,310,+
305,305,-
306,311,+
306,306,-
307,312,+
307,307,-
308,313,+
308,308,-
309,314,+
309,309,-
310,315,+
310,310,-
311,316,+
311,311,-
312,317,+
312,312,-
313,318,+
313,313,-
314,319,+
314,314,-
315,320,+
315,315,-
316,321,+
316,316,-
317,322,+
317,317,-
318,323,+
318,318,-
319,324,+
319,319,-
320,325,+
320,320,-
321,326,+
321,321,-
322,327,+
322,322,-
323,328,+
323,323,-
324,329,+
324,324,-
325,330,+
325,325,-
326,331,+
326,326,-
327,332,+
327,327,-
328,333,+
328,328,-
329,334,+
329,329,-
330,335,+
330,330,-
331,336,+
331,331,-
332,337,+
332,332,-
333,338,+
333,333,-
334,339,+
334,334,-
335,340,+
335,335,-
336,341,+
336,336,-
337,342,+
337,337,-
338,343,+
338,338,-
339,344,+
339,339,-
340,345,+
340,340,-
341,346,+
341,341,-
342,347,+
342,342,-
343,348,+
343,343,-
344,349,+
344,344,-
345,350,+
345,345,-
346,351,+
346,346,-
347,352,+
347,347,-
348,353,+
348,348,-
349,354,+
349,349,-
350,355,+
350,350,-
351,356,+
351,351,-
352,357,+
352,352,-
353,358,+
353,353,-
354,359,+
354,354,-
355,360,+
355,355,-
356,361,+
356,356,-
357,362,+
357,357,-
358,363,+
358,358,-
359,364,+
359,359,-
360,365,+
360,360,-
361,366,+
361,361,-
362,367,+
362,362,-
363,368,+
363,363,-
364,369,+
364,364,-
365,370,+
365,365,-
366,371,+
366,366,-
367,372,+
367,367,-
368,373,+
368,368,-
369,374,+
369,369,-
370,375,+
370,370,-
371,376,+
371,371,-
372,377,+
372,372,-
373,378,+
373,373,-
374,379,+
374,374,-
375,380,+
375,375,-
376,381,+
376,376,-
377,382,+
377,377,-
378,383,+
378,378,-
379,384,+
379,379,-
380,385,+
380,380,-
381,386,+
381,381,-
382,387,+
382,382,-
383,388,+
383,383,-
384,389,+
384,384,-
385,390,+
385,385,-
386,391,+
386,386,-
387,392,+
387,387,-
388,393,+
388,388,-
389,394,+
389,389,-
390,395,+
390,390,-
391,396,+
391,391,-
392,397,+
392,392,-
393,398,+
393,393,-
394,399,+
394,394,-
395,400,+
395,395,-
396,401,+
396,396,-
397,402,+
397,397,-
398,403,+
398,398,-
399,404,+
399,399,-
400,405,+
400,400,-
401,406,+
401,401,-
402,407,+
402,402,-
403,408,+
403,403,-
404,409,+
404,404,-
405,410,+
405,405,-
406,411,+
406,406,-
407,412,+
407,407,-
408,413,+
408,408,-
409,414,+
409,409,-
410,415,+
410,410,-
411,416,+
411,411,-
412,417,+
412,412,-
413,418,+
413,413,-
414,419,+
414,414,-
415,420,+
415,415,-
416,421,+
416,416,-
417,422,+
417,417,-
418,423,+
418,418,-
419,424,+
419,419,-
420,425,+
420,420,-
421,426,+
421,421,-
422,427,+
422,422,-
423,428,+
423,423,-
424,429,+
424,424,-
425,430,+
425,425,-
426,431,+
426,426,-
427,432,+
427,427,-
428,433,+
428,428,-
429,434,+
429,429,-
430,435,+
430,430,-
431,436,+
431,431,-
432,437,+
432,432,-
433,438,+
433,433,-
434,439,+
434,434,-
435,440,+
435,435,-
436,441,+
436,436,-
437,442,+
437,437,-
438,443,+
438,438,-
439,444,+
439,439,-
440,445,+
440,440,-
441,446,+
441,441,-
442,447,+
442,442,-
443,448,+
443,443,-
444,449,+
444,444,-
445,450,+
445,445,-
446,451,+
446,446,-
447,452,+
447,447,-
448,453,+
448,448,-
449,454,+
449,449,-
450,455,+
450,450,-
451,456,+
451,451,-
452,457,+
452,452,-
453,458,+
453,453,-
454,459,+
454,454,-
455,460,+
455,455,-
456,461,+
456,456,-
457,462,+
457,457,-
458,463,+
458,458,-
459,464,+
459,459,-
460,465,+
460,460,-
461,466,+
461,461,-
462,467,+
462,462,-
463,468,+
463,463,-
464,469,+
464,464,-
465,470,+
465,465,-
466,471,+
466,466,-
467,472,+
467,467,-
468,473,+
468,468,-
469,474,+
469,469,-
470,475,+
470,470,-
471,476,+
471,471,-
472,477,+
472,472,-
473,478,+
473,473,-
474,479,+
474,474,-
475,480,+
475,475,-
476,481,+
476,476,-
477,482,+
477,477,-
478,483,+
478,478,-
479,484,+
479,479,-
480,485,+
480,480,-
481,486,+
481,481,-
482,487,+
482,482,-
483,488,+
483,483,-
484,489,+
484,484,-
485,490,+
485,485,-
486,491,+
486,486,-
487,492,+
487,487,-
488,493,+
488,488,-
489,494,+
489,489,-
490,495,+
490,490,-
491,496,+
491,491,-
492,497,+
492,492,-
493,498,+
493,493,-
494,499,+
494,494,-
495,500,+
495,495,-
496,501,+
496,496,-
497,502,+
497,497,-
498,503,+
498,498,-
499,504,+
499,499,-
